%YAML 1.1
%TAG !u! tag:unity3d.com,2011:
--- !u!21 &2100000
Material:
  serializedVersion: 6
  m_ObjectHideFlags: 0
  m_PrefabParentObject: {fileID: 0}
  m_PrefabInternal: {fileID: 0}
  m_Name: BuildingFlat
  m_Shader: {fileID: 46, guid: 0000000000000000f000000000000000, type: 0}
  m_ShaderKeywords: 
  m_LightmapFlags: 5
  m_CustomRenderQueue: -475
  stringTagMap: {}
  m_SavedProperties:
    serializedVersion: 2
    m_TexEnvs:
    - first:
        name: _BumpMap
      second:
        m_Texture: {fileID: 0}
        m_Scale: {x: 0.001, y: 0.001}
        m_Offset: {x: 0, y: 0}
    - first:
        name: _Control
      second:
        m_Texture: {fileID: 0}
        m_Scale: {x: 1, y: 1}
        m_Offset: {x: 0, y: 0}
    - first:
        name: _DetailAlbedoMap
      second:
        m_Texture: {fileID: 0}
        m_Scale: {x: 1, y: 1}
        m_Offset: {x: 0, y: 0}
    - first:
        name: _DetailMask
      second:
        m_Texture: {fileID: 0}
        m_Scale: {x: 1, y: 1}
        m_Offset: {x: 0, y: 0}
    - first:
        name: _DetailNormalMap
      second:
        m_Texture: {fileID: 0}
        m_Scale: {x: 1, y: 1}
        m_Offset: {x: 0, y: 0}
    - first:
        name: _DetailTex
      second:
        m_Texture: {fileID: 0}
        m_Scale: {x: 1, y: 1}
        m_Offset: {x: 0, y: 0}
    - first:
        name: _EmissionMap
      second:
        m_Texture: {fileID: 0}
        m_Scale: {x: 1, y: 1}
        m_Offset: {x: 0, y: 0}
    - first:
        name: _LightMap
      second:
        m_Texture: {fileID: 0}
        m_Scale: {x: 1, y: 1}
        m_Offset: {x: 0, y: 0}
    - first:
        name: _MainTex
      second:
        m_Texture: {fileID: 2800000, guid: eec1be31498824a62afb335687824c7a, type: 3}
        m_Scale: {x: 0.01, y: 0.01}
        m_Offset: {x: 0, y: 0}
    - first:
        name: _MetallicGlossMap
      second:
        m_Texture: {fileID: 0}
        m_Scale: {x: 1, y: 1}
        m_Offset: {x: 0, y: 0}
    - first:
        name: _Normal0
      second:
        m_Texture: {fileID: 0}
        m_Scale: {x: 1, y: 1}
        m_Offset: {x: 0, y: 0}
    - first:
        name: _Normal1
      second:
        m_Texture: {fileID: 0}
        m_Scale: {x: 1, y: 1}
        m_Offset: {x: 0, y: 0}
    - first:
        name: _Normal2
      second:
        m_Texture: {fileID: 0}
        m_Scale: {x: 1, y: 1}
        m_Offset: {x: 0, y: 0}
    - first:
        name: _Normal3
      second:
        m_Texture: {fileID: 0}
        m_Scale: {x: 1, y: 1}
        m_Offset: {x: 0, y: 0}
    - first:
        name: _OcclusionMap
      second:
        m_Texture: {fileID: 0}
        m_Scale: {x: 1, y: 1}
        m_Offset: {x: 0, y: 0}
    - first:
        name: _ParallaxMap
      second:
        m_Texture: {fileID: 0}
        m_Scale: {x: 1, y: 1}
        m_Offset: {x: 0, y: 0}
    - first:
        name: _SpecGlossMap
      second:
        m_Texture: {fileID: 0}
        m_Scale: {x: 1, y: 1}
        m_Offset: {x: 0, y: 0}
    - first:
        name: _Splat0
      second:
        m_Texture: {fileID: 0}
        m_Scale: {x: 1, y: 1}
        m_Offset: {x: 0, y: 0}
    - first:
        name: _Splat1
      second:
        m_Texture: {fileID: 0}
        m_Scale: {x: 1, y: 1}
        m_Offset: {x: 0, y: 0}
    - first:
        name: _Splat2
      second:
        m_Texture: {fileID: 0}
        m_Scale: {x: 1, y: 1}
        m_Offset: {x: 0, y: 0}
    - first:
        name: _Splat3
      second:
        m_Texture: {fileID: 0}
        m_Scale: {x: 1, y: 1}
        m_Offset: {x: 0, y: 0}
    - first:
        name: _blendmask
      second:
        m_Texture: {fileID: 0}
        m_Scale: {x: 1, y: 1}
        m_Offset: {x: 0, y: 0}
    - first:
        name: _curvaturetexture_albedo
      second:
        m_Texture: {fileID: 0}
        m_Scale: {x: 1, y: 1}
        m_Offset: {x: 0, y: 0}
    - first:
        name: _curvaturetexture_normal
      second:
        m_Texture: {fileID: 0}
        m_Scale: {x: 1, y: 1}
        m_Offset: {x: 0, y: 0}
    - first:
        name: _grass2albedotexture
      second:
        m_Texture: {fileID: 0}
        m_Scale: {x: 1, y: 1}
        m_Offset: {x: 0, y: 0}
    - first:
        name: _grass2normaltexture
      second:
        m_Texture: {fileID: 0}
        m_Scale: {x: 1, y: 1}
        m_Offset: {x: 0, y: 0}
    - first:
        name: _grassalbedo
      second:
        m_Texture: {fileID: 2800000, guid: eec1be31498824a62afb335687824c7a, type: 3}
        m_Scale: {x: 0.03, y: 0.08}
        m_Offset: {x: 0, y: 0}
    - first:
        name: _grassdetail
      second:
        m_Texture: {fileID: 2800000, guid: d0e61c5ae051a0b4a945494f5469d3b1, type: 3}
        m_Scale: {x: 1, y: 1}
        m_Offset: {x: 0, y: 0}
    - first:
        name: _grassdetailnormal
      second:
        m_Texture: {fileID: 2800000, guid: b009f9238a003f846a0f6d0fe5b30a7c, type: 3}
        m_Scale: {x: 1, y: 1}
        m_Offset: {x: 0, y: 0}
    - first:
        name: _grassnormal
      second:
        m_Texture: {fileID: 0}
        m_Scale: {x: 1, y: 1}
        m_Offset: {x: 0, y: 0}
    - first:
        name: _grasstexture_albedo
      second:
        m_Texture: {fileID: 0}
        m_Scale: {x: 1, y: 1}
        m_Offset: {x: 0, y: 0}
    - first:
        name: _grasstexture_normal
      second:
        m_Texture: {fileID: 0}
        m_Scale: {x: 1, y: 1}
        m_Offset: {x: 0, y: 0}
    - first:
        name: _gruntalbedotexture
      second:
        m_Texture: {fileID: 0}
        m_Scale: {x: 1, y: 1}
        m_Offset: {x: 0, y: 0}
    - first:
        name: _gruntnormaltexture
      second:
        m_Texture: {fileID: 0}
        m_Scale: {x: 1, y: 1}
        m_Offset: {x: 0, y: 0}
    - first:
        name: _masksredrocksgreengruntbluecurvaturealphaAO
      second:
        m_Texture: {fileID: 0}
        m_Scale: {x: 1, y: 1}
        m_Offset: {x: 0, y: 0}
    - first:
        name: _normalland
      second:
        m_Texture: {fileID: 0}
        m_Scale: {x: 1, y: 1}
        m_Offset: {x: 0, y: 0}
    - first:
        name: _rockalbedo
      second:
        m_Texture: {fileID: 2800000, guid: eec1be31498824a62afb335687824c7a, type: 3}
        m_Scale: {x: 0.01, y: 0.01}
        m_Offset: {x: 0, y: 0}
    - first:
        name: _rocknormal23
      second:
        m_Texture: {fileID: 0}
        m_Scale: {x: 1, y: 1}
        m_Offset: {x: 0, y: 0}
    - first:
        name: _rocktexture_albedo
      second:
        m_Texture: {fileID: 0}
        m_Scale: {x: 1, y: 1}
        m_Offset: {x: 0, y: 0}
    - first:
        name: _rocktexture_normal
      second:
        m_Texture: {fileID: 0}
        m_Scale: {x: 1, y: 1}
        m_Offset: {x: 0, y: 0}
    m_Floats:
    - first:
        name: PixelSnap
      second: 0
    - first:
        name: _AOcontrast
      second: 1
    - first:
        name: _AOpower
      second: 1
    - first:
        name: _Ambientpower
      second: 0.3757262
    - first:
        name: _BumpScale
      second: 1
    - first:
        name: _ColorMask
      second: 15
    - first:
        name: _Cull
      second: 2
    - first:
        name: _Cutoff
      second: 0.5
    - first:
        name: _DetailNormalMapScale
      second: 1
    - first:
        name: _DstBlend
      second: 0
    - first:
        name: _EmissionScaleUI
      second: 0
    - first:
        name: _Glossiness
      second: 0
    - first:
        name: _InvFade
      second: 1
    - first:
        name: _Metallic
      second: 0
    - first:
        name: _Mode
      second: 0
    - first:
        name: _OcclusionStrength
      second: 1
    - first:
        name: _Parallax
      second: 0.02
    - first:
        name: _Shininess
      second: 0.03
    - first:
        name: _SrcBlend
      second: 1
    - first:
        name: _Stencil
      second: 0
    - first:
        name: _StencilComp
      second: 8
    - first:
        name: _StencilOp
      second: 0
    - first:
        name: _StencilReadMask
      second: 255
    - first:
        name: _StencilWriteMask
      second: 255
    - first:
        name: _UVSec
      second: 0
    - first:
        name: _UseUIAlphaClip
      second: 0
    - first:
        name: _WindQuality
      second: 0
    - first:
        name: _ZWrite
      second: 1
    - first:
        name: _ambient
      second: 0.119
    - first:
        name: _blendtile
      second: 1
    - first:
        name: _blendtile2
      second: 1
    - first:
        name: _curvaturetile
      second: 1
    - first:
        name: _detaildiffusefactor
      second: 0.61
    - first:
        name: _detailtile
      second: 8
    - first:
        name: _distancedetail
      second: 85
    - first:
        name: _distancefactor
      second: 0.23
    - first:
        name: _distancefade
      second: 0.1
    - first:
        name: _farblendpower
      second: 0.15
    - first:
        name: _glossines
      second: 0.6
    - first:
        name: _grasmaskblur
      second: 5.08
    - first:
        name: _grasmaskblur2
      second: 2
    - first:
        name: _grasmasktile
      second: 0
    - first:
        name: _grasmasktile2
      second: 1
    - first:
        name: _grass2tile
      second: 1
    - first:
        name: _grasslod0
      second: 1.29
    - first:
        name: _grasslod1tile
      second: 0.122
    - first:
        name: _grasstile
      second: 1
    - first:
        name: _grunttile
      second: 2
    - first:
        name: _rocktexturetile
      second: 0
    - first:
        name: _rocktile
      second: 2
    - first:
        name: _specularpower
      second: 0
    - first:
        name: _tiling
      second: 0.86
    m_Colors:
    - first:
        name: _Color
      second: {r: 0.92553097, g: 0.9264706, b: 0.8583477, a: 0.98039216}
    - first:
        name: _EmissionColor
      second: {r: 0, g: 0, b: 0, a: 1}
    - first:
        name: _EmissionColorUI
      second: {r: 1, g: 1, b: 1, a: 1}
    - first:
        name: _HueVariation
      second: {r: 1, g: 0.5, b: 0, a: 0.1}
    - first:
        name: _SpecColor
      second: {r: 0, g: 0, b: 0, a: 0}
    - first:
        name: _Specular
      second: {r: 0, g: 0, b: 0, a: 0}
    - first:
        name: _TintColor
      second: {r: 0.5, g: 0.5, b: 0.5, a: 0.5}
    - first:
        name: _grasscolor1
      second: {r: 0.58823526, g: 0.29411763, b: 0.29411763, a: 1}
    - first:
        name: _grasscolor2
      second: {r: 0.8117647, g: 0.6143945, b: 0.6143945, a: 1}
